{
 "actions": [],
 "creation": "2021-04-12 11:16:43.637119",
 "doctype": "DocType",
 "editable_grid": 1,
 "engine": "InnoDB",
 "field_order": [
  "container_type",
  "column_break_1",
  "container_number",
  "column_break_2",
  "seal_number",
  "section_break_4",
  "description",
  "create_delivery_note",
  "delivery_note"
 ],
 "fields": [
  {
   "fieldname": "container_type",
   "fieldtype": "Link",
   "in_list_view": 1,
   "label": "Container Type",
   "options": "Container Type"
  },
  {
   "fieldname": "column_break_1",
   "fieldtype": "Column Break"
  },
  {
   "fieldname": "container_number",
   "fieldtype": "Data",
   "in_list_view": 1,
   "label": "Container Number"
  },
  {
   "fieldname": "column_break_2",
   "fieldtype": "Column Break"
  },
  {
   "fieldname": "seal_number",
   "fieldtype": "Data",
   "in_list_view": 1,
   "label": "Seal Number"
  },
  {
   "fieldname": "section_break_4",
   "fieldtype": "Section Break"
  },
  {
   "fieldname": "description",
   "fieldtype": "Text",
   "in_list_view": 1,
   "label": "Description "
  },
  {
   "depends_on": "eval:!doc.delivery_note",
   "fieldname": "create_delivery_note",
   "fieldtype": "Button",
   "in_list_view": 1,
   "label": "Create Delivery Note"
  },
  {
   "allow_on_submit": 1,
   "fieldname": "delivery_note",
   "fieldtype": "Link",
   "in_list_view": 1,
   "label": "Delivery Note",
   "options": "Delivery Note"
  }
 ],
 "istable": 1,
 "links": [],
 "modified": "2023-02-01 19:09:00.035317",
 "modified_by": "Administrator",
 "module": "Jawa Logistics",
 "name": "Container Info",
 "owner": "Administrator",
 "permissions": [],
 "quick_entry": 1,
 "sort_field": "modified",
 "sort_order": "DESC",
 "states": [],
 "track_changes": 1
}