{
 "absolute_value": 0,
 "align_labels_right": 1,
 "creation": "2022-12-19 10:34:19.316078",
 "custom_format": 0,
 "default_print_language": "en-US",
 "disabled": 0,
 "doc_type": "Sales Invoice",
 "docstatus": 0,
 "doctype": "Print Format",
 "font": "Default",
 "format_data": "[{\"fieldname\": \"print_heading_template\", \"fieldtype\": \"Custom HTML\", \"options\": \"<div class=\\\"print-heading\\\">\\t\\t\\t\\t<h2>Sales Invoice<br><small>{{ doc.name }}</small>\\t\\t\\t\\t</h2></div>\"}, {\"fieldtype\": \"Section Break\", \"label\": \"\"}, {\"fieldtype\": \"Column Break\"}, {\"fieldname\": \"file_info\", \"print_hide\": 0, \"label\": \"File Info\"}, {\"fieldname\": \"air_waybill\", \"print_hide\": 0, \"label\": \"Air Waybill\"}, {\"fieldname\": \"bill_of_land\", \"print_hide\": 0, \"label\": \"Bill of Land\"}, {\"fieldname\": \"land_waybill\", \"print_hide\": 0, \"label\": \"Land Waybill\"}, {\"fieldname\": \"house_bill\", \"print_hide\": 0, \"label\": \"House Bill\"}, {\"fieldname\": \"customer_name\", \"print_hide\": 0, \"label\": \"Customer Name\"}, {\"fieldname\": \"tax_id\", \"print_hide\": 0, \"label\": \"Tax Id\"}, {\"fieldtype\": \"Column Break\"}, {\"fieldname\": \"posting_date\", \"print_hide\": 0, \"label\": \"Date\"}, {\"fieldname\": \"due_date\", \"print_hide\": 0, \"label\": \"Payment Due Date\"}, {\"fieldname\": \"finance_book\", \"print_hide\": 0, \"label\": \"Finance Book\"}, {\"fieldname\": \"cost_center\", \"print_hide\": 0, \"label\": \"Cost Center\"}, {\"fieldname\": \"po_date\", \"print_hide\": 0, \"label\": \"Customer's Purchase Order Date\"}, {\"fieldtype\": \"Section Break\", \"label\": \"Address and Contact\"}, {\"fieldtype\": \"Column Break\"}, {\"fieldname\": \"address_display\", \"print_hide\": 0, \"label\": \"Address\"}, {\"fieldname\": \"contact_display\", \"print_hide\": 0, \"label\": \"Contact\"}, {\"fieldname\": \"contact_mobile\", \"print_hide\": 0, \"label\": \"Mobile No\"}, {\"fieldtype\": \"Column Break\"}, {\"fieldname\": \"order_reference_number\", \"print_hide\": 0, \"label\": \"Order Reference Number\"}, {\"fieldname\": \"customs_ref\", \"print_hide\": 0, \"label\": \"Customs Reference \"}, {\"fieldtype\": \"Section Break\", \"label\": \"\"}, {\"fieldtype\": \"Column Break\"}, {\"fieldname\": \"items\", \"print_hide\": 0, \"label\": \"Items\", \"visible_columns\": [{\"fieldname\": \"item_code\", \"print_width\": \"\", \"print_hide\": 0}, {\"fieldname\": \"item_name_in_arabic\", \"print_width\": \"\", \"print_hide\": 0}, {\"fieldname\": \"description\", \"print_width\": \"200px\", \"print_hide\": 0}, {\"fieldname\": \"qty\", \"print_width\": \"\", \"print_hide\": 0}, {\"fieldname\": \"uom\", \"print_width\": \"\", \"print_hide\": 0}, {\"fieldname\": \"discount_amount\", \"print_width\": \"\", \"print_hide\": 0}, {\"fieldname\": \"rate\", \"print_width\": \"\", \"print_hide\": 0}, {\"fieldname\": \"amount\", \"print_width\": \"\", \"print_hide\": 0}, {\"fieldname\": \"item_tax_template_c\", \"print_width\": \"\", \"print_hide\": 0}, {\"fieldname\": \"finance_book\", \"print_width\": \"\", \"print_hide\": 0}]}, {\"fieldtype\": \"Section Break\", \"label\": \"\"}, {\"fieldtype\": \"Column Break\"}, {\"fieldname\": \"total_qty\", \"print_hide\": 0, \"label\": \"Total Quantity\"}, {\"fieldtype\": \"Column Break\"}, {\"fieldname\": \"total\", \"print_hide\": 0, \"label\": \"Total\"}, {\"fieldname\": \"grand_total\", \"print_hide\": 0, \"label\": \"Grand Total\"}, {\"fieldname\": \"in_words\", \"print_hide\": 0, \"label\": \"In Words\"}, {\"fieldtype\": \"Section Break\", \"label\": \"Subscription Section\"}, {\"fieldtype\": \"Column Break\"}, {\"fieldtype\": \"Column Break\"}, {\"fieldname\": \"qr_code\", \"print_hide\": 0, \"label\": \"QR Code\"}]",
 "html": "",
 "idx": 0,
 "line_breaks": 0,
 "modified": "2022-12-19 10:40:23.762468",
 "modified_by": "Administrator",
 "module": "Jawa Logistics",
 "name": "Jawa Logistic Sales Invoice Return",
 "owner": "Administrator",
 "print_format_builder": 0,
 "print_format_type": "Jinja",
 "raw_printing": 0,
 "show_section_headings": 0,
 "standard": "Yes"
}