{
 "custom_fields": [],
 "custom_perms": [
  {
   "_assign": null,
   "_comments": null,
   "_liked_by": null,
   "_user_tags": null,
   "amend": 0,
   "cancel": 0,
   "create": 0,
   "creation": "2018-04-13 17:42:43.252224",
   "delete": 0,
   "docstatus": 0,
   "email": 1,
   "export": 1,
   "idx": 1,
   "if_owner": 0,
   "import": 0,
   "modified": "2022-03-13 11:16:21.316799",
   "modified_by": "Administrator",
   "name": "ccc3cb57db",
   "owner": "Administrator",
   "parent": "Finance Book",
   "parentfield": "permissions",
   "parenttype": "DocType",
   "permlevel": 0,
   "print": 1,
   "read": 1,
   "report": 1,
   "role": "Accounts User",
   "select": 0,
   "set_user_permissions": 0,
   "share": 1,
   "submit": 0,
   "write": 0
  },
  {
   "_assign": null,
   "_comments": null,
   "_liked_by": null,
   "_user_tags": null,
   "amend": 0,
   "cancel": 0,
   "create": 1,
   "creation": "2018-04-13 17:42:43.252224",
   "delete": 1,
   "docstatus": 0,
   "email": 1,
   "export": 1,
   "idx": 2,
   "if_owner": 0,
   "import": 0,
   "modified": "2022-03-13 11:16:21.345133",
   "modified_by": "Administrator",
   "name": "bf385291b7",
   "owner": "Administrator",
   "parent": "Finance Book",
   "parentfield": "permissions",
   "parenttype": "DocType",
   "permlevel": 0,
   "print": 1,
   "read": 1,
   "report": 1,
   "role": "Accounts Manager",
   "select": 0,
   "set_user_permissions": 0,
   "share": 1,
   "submit": 0,
   "write": 1
  },
  {
   "_assign": null,
   "_comments": null,
   "_liked_by": null,
   "_user_tags": null,
   "amend": 0,
   "cancel": 0,
   "create": 0,
   "creation": "2018-04-13 17:42:43.252224",
   "delete": 0,
   "docstatus": 0,
   "email": 1,
   "export": 1,
   "idx": 3,
   "if_owner": 0,
   "import": 0,
   "modified": "2022-03-13 11:16:21.366852",
   "modified_by": "Administrator",
   "name": "52d583f0d0",
   "owner": "Administrator",
   "parent": "Finance Book",
   "parentfield": "permissions",
   "parenttype": "DocType",
   "permlevel": 0,
   "print": 1,
   "read": 1,
   "report": 1,
   "role": "Auditor",
   "select": 0,
   "set_user_permissions": 0,
   "share": 1,
   "submit": 0,
   "write": 0
  },
  {
   "_assign": null,
   "_comments": null,
   "_liked_by": null,
   "_user_tags": null,
   "amend": 0,
   "cancel": 0,
   "create": 0,
   "creation": "2022-11-06 09:44:54.302481",
   "delete": 0,
   "docstatus": 0,
   "email": 0,
   "export": 0,
   "idx": 0,
   "if_owner": 0,
   "import": 0,
   "modified": "2022-11-06 09:44:54.302481",
   "modified_by": "Administrator",
   "name": "50efcb8752",
   "owner": "Administrator",
   "parent": "Finance Book",
   "parentfield": "permissions",
   "parenttype": "DocType",
   "permlevel": 0,
   "print": 0,
   "read": 1,
   "report": 0,
   "role": "HR Manager",
   "select": 0,
   "set_user_permissions": 0,
   "share": 0,
   "submit": 0,
   "write": 0
  }
 ],
 "doctype": "Finance Book",
 "property_setters": [],
 "sync_on_migrate": 1
}