{
 "custom_fields": [],
 "custom_perms": [
  {
   "_assign": null,
   "_comments": null,
   "_liked_by": null,
   "_user_tags": null,
   "amend": 0,
   "cancel": 0,
   "create": 1,
   "creation": "2012-03-27 14:36:09",
   "delete": 0,
   "docstatus": 0,
   "email": 1,
   "export": 0,
   "idx": 1,
   "if_owner": 0,
   "import": 0,
   "modified": "2022-09-28 11:21:06.589988",
   "modified_by": "Administrator",
   "name": "3335b77ec1",
   "owner": "harshada@webnotestech.com",
   "parent": "Industry Type",
   "parentfield": "permissions",
   "parenttype": "DocType",
   "permlevel": 0,
   "print": 1,
   "read": 1,
   "report": 1,
   "role": "Sales Manager",
   "set_user_permissions": 0,
   "share": 1,
   "submit": 0,
   "write": 1
  },
  {
   "_assign": null,
   "_comments": null,
   "_liked_by": null,
   "_user_tags": null,
   "amend": 0,
   "cancel": 0,
   "create": 1,
   "creation": "2012-03-27 14:36:09",
   "delete": 0,
   "docstatus": 0,
   "email": 1,
   "export": 0,
   "idx": 3,
   "if_owner": 0,
   "import": 0,
   "modified": "2022-09-28 11:21:06.635199",
   "modified_by": "Administrator",
   "name": "8265fa5a4a",
   "owner": "harshada@webnotestech.com",
   "parent": "Industry Type",
   "parentfield": "permissions",
   "parenttype": "DocType",
   "permlevel": 0,
   "print": 1,
   "read": 1,
   "report": 1,
   "role": "Sales Master Manager",
   "set_user_permissions": 0,
   "share": 1,
   "submit": 0,
   "write": 1
  },
  {
   "_assign": null,
   "_comments": null,
   "_liked_by": null,
   "_user_tags": null,
   "amend": 0,
   "cancel": 0,
   "create": 0,
   "creation": "2012-03-27 14:36:09",
   "delete": 0,
   "docstatus": 0,
   "email": 1,
   "export": 0,
   "idx": 2,
   "if_owner": 0,
   "import": 0,
   "modified": "2022-09-28 11:21:06.668584",
   "modified_by": "Administrator",
   "name": "472054507a",
   "owner": "harshada@webnotestech.com",
   "parent": "Industry Type",
   "parentfield": "permissions",
   "parenttype": "DocType",
   "permlevel": 0,
   "print": 1,
   "read": 1,
   "report": 1,
   "role": "Sales User",
   "set_user_permissions": 0,
   "share": 0,
   "submit": 0,
   "write": 0
  },
  {
   "_assign": null,
   "_comments": null,
   "_liked_by": null,
   "_user_tags": null,
   "amend": 0,
   "cancel": 0,
   "create": 1,
   "creation": "2022-09-28 11:21:06.706635",
   "delete": 0,
   "docstatus": 0,
   "email": 0,
   "export": 1,
   "idx": 0,
   "if_owner": 0,
   "import": 0,
   "modified": "2022-09-28 11:21:06.706635",
   "modified_by": "Administrator",
   "name": "9a3c6df67d",
   "owner": "Administrator",
   "parent": "Industry Type",
   "parentfield": "permissions",
   "parenttype": "DocType",
   "permlevel": 0,
   "print": 0,
   "read": 1,
   "report": 0,
   "role": "CRM user",
   "set_user_permissions": 0,
   "share": 0,
   "submit": 0,
   "write": 1
  }
 ],
 "doctype": "Industry Type",
 "property_setters": [],
 "sync_on_migrate": 1
}