{
 "custom_fields": [
  {
   "_assign": null,
   "_comments": null,
   "_liked_by": null,
   "_user_tags": null,
   "allow_in_quick_entry": 0,
   "allow_on_submit": 0,
   "bold": 0,
   "collapsible": 0,
   "collapsible_depends_on": null,
   "columns": 0,
   "creation": "2022-05-25 14:25:22.098390",
   "default": null,
   "depends_on": null,
   "description": null,
   "docstatus": 0,
   "dt": "Payment Entry",
   "fetch_from": null,
   "fetch_if_empty": 0,
   "fieldname": "finance_book",
   "fieldtype": "Link",
   "hidden": 0,
   "idx": 9,
   "ignore_user_permissions": 0,
   "ignore_xss_filter": 0,
   "in_global_search": 0,
   "in_list_view": 1,
   "in_standard_filter": 1,
   "insert_after": "mode_of_payment",
   "label": "Finance Book",
   "length": 0,
   "modified": "2022-05-25 14:25:22.098390",
   "modified_by": "Administrator",
   "name": "Payment Entry-finance_book",
   "no_copy": 0,
   "options": "Finance Book",
   "owner": "Administrator",
   "parent": null,
   "parentfield": null,
   "parenttype": null,
   "permlevel": 0,
   "precision": "",
   "print_hide": 0,
   "print_hide_if_no_value": 0,
   "print_width": null,
   "read_only": 0,
   "report_hide": 0,
   "reqd": 1,
   "search_index": 0,
   "translatable": 0,
   "unique": 0,
   "width": null
  }
 ],
 "custom_perms": [],
 "doctype": "Payment Entry",
 "property_setters": [
  {
   "_assign": null,
   "_comments": null,
   "_liked_by": null,
   "_user_tags": null,
   "creation": "2022-04-12 10:01:02.565201",
   "default_value": null,
   "doc_type": "Payment Entry",
   "docstatus": 0,
   "doctype_or_field": "DocField",
   "field_name": "cost_center",
   "idx": 0,
   "modified": "2022-04-12 10:01:02.565201",
   "modified_by": "Administrator",
   "name": "Payment Entry-cost_center-reqd",
   "owner": "Administrator",
   "parent": null,
   "parentfield": null,
   "parenttype": null,
   "property": "reqd",
   "property_type": "Check",
   "value": "1"
  }
 ],
 "sync_on_migrate": 1
}